<?php
	/**
	* This script is to be called by the client side javascript, it will pull the requested computers from the database
	*/

	
	require_once '../../__config.php';

	$error = false; //If there was a problem
	$data = ''; //Computers returned, or error message
	$computers = null; //The computer objects returned
	$ids = (isset($_POST['ids'])) ? $_POST['ids'] : null;

	//If the user isn't valid, send an error back
	if(!validateCurrentUser()){
		$error = true;
		$data = "You have to be logged in to do that...";
	}

	//Pulling the data
	if(!$error){
		try{
			//Getting the DB connection
			$db = getDBConn();
			//Getting the mapper
			$computerMapper = ComputerMapper::GetInstance($db);
			if($ids === null){
				//Looking for all computers
				$computers = $computerMapper->findAll();
			}
			else{
				//Looking for specific computers
				$computers = $computerMapper->find($ids);
			}
			$data = array();
			for($i = 0; $i < count($computers); $i++){
				$data[] = $computers[$i]->getInfoArray();
			}
		}
		catch(DBException $e){
			$error = true;
			if($GLOBALS['debug']){
				$data = $e->getMessage();
			}
			else{
				$data = 'There was an issue with that request. Please try again.';
			}
		}
		catch(ValidationException $e){
			$error = true;
			if($GLOBALS['debug']){
				$data = "VALIDATION EXCEPTION: getComputers: " . $e->getMessage();
			}
			else{
				$data = "There was some invalid data there! <br>" . $e->getUserMessage();
			}
		}
		catch(Exception $e){
			$error = true;
			if($GLOBALS['debug']){
				$data = $e->getMessage();
			}
			else{
				$data = 'Something went wrong. Try again later.';
			}
		}
	}


	//Finally echo if there is an error and the data in JSON
	echo json_encode(array('error' => $error, 'data' => $data));
?>
